<?xml version="1.0" encoding="utf-8"?>
<!-- Generator: Adobe Illustrator 18.1.1, SVG Export Plug-In . SVG Version: 6.00 Build 0)  -->
<svg version="1.1" id="Layer_1" xmlns="http://www.w3.org/2000/svg" xmlns:xlink="http://www.w3.org/1999/xlink" x="0px" y="0px"
	 viewBox="-0.1 237.2 612.2 317.4" enable-background="new -0.1 237.2 612.2 317.4" xml:space="preserve">
<g>
	<path fill="#FFF100" d="M599.5,237.5H161.6c-3.7-0.8-8.3,0-11.2,3.3L3.3,387.5c-4.6,4.6-4.6,12.5,0,17L150,551.2
		c2.9,2.9,6.6,3.7,10.4,3.3h439.2c7.1,0,12.5-5.4,12.5-12.5V250C612,242.9,606.6,237.5,599.5,237.5z"/>
	<g enable-background="new    ">
		<path fill="#58595B" d="M160.7,373c-1.1,0-2-0.9-2-2v-40.1c0-1.1,0.9-2,2-2h23.5c1.1,0,2,0.9,2,2v3.2c0,1.1-0.9,2-2,2h-16.8v12.5
			H181c1.1,0,2,0.9,2,2v3.2c0,1.1-0.9,2-2,2h-13.6V371c0,1.1-0.9,2-2,2H160.7z"/>
		<path fill="#58595B" d="M193.3,373c-1.1,0-2-0.9-2-2v-40.1c0-1.1,0.9-2,2-2h14.9c9.4,0,15.2,4.9,15.2,13.7v2.3
			c0,6.1-2.9,10.6-8.3,12.3l8.8,14.1c0.4,0.8-0.1,1.7-1,1.7h-6.1c-1.2,0-2.4-0.7-3-1.8l-7.4-12.6h-6.3V371c0,1.1-0.9,2-2,2H193.3z
			 M200.1,351.7h8.2c4.2,0,6.4-2.3,6.4-7.4v-0.8c0-5.1-2.3-7.3-6.4-7.3h-8.2V351.7z"/>
		<path fill="#58595B" d="M232.2,373c-1.1,0-2-0.9-2-2v-40.1c0-1.1,0.9-2,2-2h23.5c1.1,0,2,0.9,2,2v3.2c0,1.1-0.9,2-2,2H239V348
			h13.6c1.1,0,2,0.9,2,2v3.1c0,1.1-0.9,2-2,2H239v10.8h17.1c1.1,0,2,0.9,2,2v3.2c0,1.1-0.9,2-2,2h-23.9V373z"/>
		<path fill="#58595B" d="M265.6,373c-1.1,0-2-0.9-2-2v-40.1c0-1.1,0.9-2,2-2h23.5c1.1,0,2,0.9,2,2v3.2c0,1.1-0.9,2-2,2h-16.7V348
			H286c1.1,0,2,0.9,2,2v3.1c0,1.1-0.9,2-2,2h-13.6v10.8h17.1c1.1,0,2,0.9,2,2v3.2c0,1.1-0.9,2-2,2h-23.9V373z"/>
		<path fill="#58595B" d="M316.6,373c-1.1,0-2-0.9-2-2v-40.1c0-1.1,0.9-2,2-2h14.9c9.4,0,15.2,5.5,15.2,14.3v15.5
			c0,8.8-5.8,14.3-15.2,14.3L316.6,373L316.6,373z M323.3,365.9h8.2c4.2,0,6.4-2.8,6.4-7.9v-14c0-5.2-2.3-7.9-6.4-7.9h-8.2V365.9z"
			/>
		<path fill="#58595B" d="M355.5,373c-1.1,0-2-0.9-2-2v-40.1c0-1.1,0.9-2,2-2H379c1.1,0,2,0.9,2,2v3.2c0,1.1-0.9,2-2,2h-16.7V348
			h13.6c1.1,0,2,0.9,2,2v3.1c0,1.1-0.9,2-2,2h-13.6v10.8h17.1c1.1,0,2,0.9,2,2v3.2c0,1.1-0.9,2-2,2h-23.9V373z"/>
		<path fill="#58595B" d="M389,373c-1.1,0-2-0.9-2-2v-40.1c0-1.1,0.9-2,2-2h4.8c1.1,0,2,0.9,2,2v35h16.5c1.1,0,2,0.9,2,2v3.2
			c0,1.1-0.9,2-2,2H389V373z"/>
		<path fill="#58595B" d="M420.5,373c-1.1,0-2-0.9-2-2v-40.1c0-1.1,0.9-2,2-2h4.8c1.1,0,2,0.9,2,2V371c0,1.1-0.9,2-2,2H420.5z"/>
		<path fill="#58595B" d="M447.8,373c-1.2,0-2.3-0.8-2.6-1.9l-14-40.4c-0.3-0.9,0.4-1.9,1.4-1.9h5.2c1.2,0,2.3,0.8,2.6,2l9.8,31.9
			l9.4-31.9c0.3-1.1,1.3-2,2.5-2h5.1c0.9,0,1.6,0.9,1.3,1.9l-13.7,40.4c-0.4,1.1-1.5,1.9-2.6,1.9H447.8z"/>
		<path fill="#58595B" d="M474.6,373c-1.1,0-2-0.9-2-2v-40.1c0-1.1,0.9-2,2-2H498c1.1,0,2,0.9,2,2v3.2c0,1.1-0.9,2-2,2h-16.7V348
			h13.6c1.1,0,2,0.9,2,2v3.1c0,1.1-0.9,2-2,2h-13.6v10.8h17.1c1.1,0,2,0.9,2,2v3.2c0,1.1-0.9,2-2,2h-23.8V373z"/>
		<path fill="#58595B" d="M508,373c-1.1,0-2-0.9-2-2v-40.1c0-1.1,0.9-2,2-2h14.9c9.4,0,15.2,4.9,15.2,13.7v2.3
			c0,6.1-2.9,10.6-8.3,12.3l8.8,14.1c0.4,0.8-0.1,1.7-1,1.7h-6.1c-1.2,0-2.4-0.7-3-1.8l-7.4-12.6h-6.3V371c0,1.1-0.9,2-2,2H508z
			 M514.7,351.7h8.2c4.2,0,6.4-2.3,6.4-7.4v-0.8c0-5.1-2.3-7.3-6.4-7.3h-8.2V351.7z"/>
		<path fill="#58595B" d="M556,373c-1.1,0-2-0.9-2-2v-13.1l-13.2-27.2c-0.4-0.8,0.2-1.8,1.1-1.8h5.4c1.2,0,2.3,0.8,2.7,1.8l8.4,19.4
			l8.4-19.4c0.5-1.1,1.6-1.8,2.8-1.8h5.1c0.9,0,1.5,0.9,1.1,1.8l-13.1,27.1V371c0,1.1-0.9,2-2,2H556z"/>
		<path fill="#58595B" d="M584.9,373.7c-2.6,0-4.4-1.3-4.4-4.2c0-2.7,1.8-4,4.4-4c2.7,0,4.5,1.3,4.5,4
			C589.4,372.3,587.6,373.7,584.9,373.7z M583.5,361.2c-1.1,0-2-0.9-2.1-2l-0.7-19v-9.3c0-1.1,0.9-2,2-2h4.4c1.1,0,2,0.9,2,2v9.3
			l-0.7,19c0,1.1-0.9,2-2.1,2H583.5z"/>
	</g>
	<g enable-background="new    ">
		<path fill="#58595B" d="M157.1,422.5v-10.2c0-4.9,4.1-7.9,9.1-7.9c5.1,0,9.2,3,9.2,7.9v10.2c0,4.9-4.1,7.9-9.2,7.9
			C161.2,430.5,157.1,427.4,157.1,422.5z M160.9,412.8v9.2c0,3.4,2.4,5.2,5.4,5.2s5.4-1.8,5.4-5.2v-9.2c0-3.4-2.4-5.2-5.4-5.2
			C163.3,407.6,160.9,409.4,160.9,412.8z"/>
		<path fill="#58595B" d="M180.7,430c-0.5,0-0.9-0.4-0.9-0.9v-18.3c0-0.5,0.4-0.9,0.9-0.9h1.3c0.5,0,1,0.4,1,0.9l0.1,1.1
			c1.4-1.4,3.2-2.4,5.3-2.4c4.5,0,6.5,2.3,6.5,6.8V429c0,0.5-0.4,0.9-0.9,0.9h-1.8c-0.5,0-0.9-0.4-0.9-0.9v-12.3
			c0-2.9-0.9-4.2-3.6-4.2c-1.8,0-3.4,1.2-4.5,2.4v14c0,0.5-0.4,0.9-0.9,0.9h-1.6V430z"/>
		<path fill="#58595B" d="M217.9,430.3c-1.1,3.3-3.8,5.2-7.1,5.3c-0.5,0-0.9-0.4-0.9-0.9v-1c0-0.6,0.4-0.9,0.9-1
			c1.8-0.1,3.1-1.1,3.7-3l-6.7-18.9c-0.1-0.4,0.1-0.9,0.6-0.9h2c0.5,0,1,0.4,1.1,0.9l4.8,15.1l4.7-15.1c0.1-0.5,0.6-0.9,1.2-0.9h1.9
			c0.5,0,0.8,0.4,0.6,0.9L217.9,430.3z"/>
		<path fill="#58595B" d="M226.6,422.9V417c0-4.6,3-7.4,7.8-7.4s7.8,2.8,7.8,7.4v5.9c0,4.6-3,7.4-7.8,7.4S226.6,427.5,226.6,422.9z
			 M230.1,417.4v5.1c0,3.2,1.5,4.9,4.3,4.9s4.3-1.7,4.3-4.9v-5.1c0-3.2-1.5-4.9-4.3-4.9C231.7,412.5,230.1,414.2,230.1,417.4z"/>
		<path fill="#58595B" d="M246.8,423.5v-12.7c0-0.5,0.4-0.9,0.9-0.9h1.8c0.5,0,0.9,0.4,0.9,0.9v12.3c0,2.9,0.6,4.2,3.4,4.2
			c1.8,0,3.5-1.2,4.5-2.4v-14c0-0.5,0.4-0.9,0.9-0.9h1.8c0.5,0,0.9,0.4,0.9,0.9v18.3c0,0.5-0.4,0.9-0.9,0.9h-1.4c-0.5,0-1-0.4-1-0.9
			l-0.1-1.1c-1.4,1.4-3.4,2.4-5.4,2.4C248.3,430.3,246.8,428,246.8,423.5z"/>
		<path fill="#58595B" d="M275.5,410.3v1.7c0,0.5-0.3,0.8-0.8,0.8c-1.5,0-3.6,1.1-4.5,2.7v13.6c0,0.5-0.4,0.9-0.9,0.9h-1.8
			c-0.5,0-0.9-0.4-0.9-0.9v-18.3c0-0.5,0.4-0.9,0.9-0.9h1.3c0.5,0,1,0.4,1,0.9l0.1,1.5c1-1.6,3.4-2.8,4.7-2.8
			C275.2,409.6,275.5,409.9,275.5,410.3z"/>
		<path fill="#58595B" d="M289.6,430c-0.5,0-0.9-0.4-0.9-0.9v-16.2h-1.4c-0.5,0-0.9-0.4-0.9-0.9v-1.1c0-0.5,0.4-0.9,0.9-0.9h1.4
			v-0.8c0-4.4,2.8-6.4,7.2-6.4c1.7,0,3.7,0.3,5,0.7c0.4,0.1,0.9,0.6,0.9,1.1v1.1c0,0.5-0.4,0.8-0.9,0.7c-1.4-0.3-3.3-0.6-4.8-0.6
			c-2.4,0-3.8,1-3.8,3.7v0.5h9.9c0.5,0,0.9,0.4,0.9,0.9v18.3c0,0.5-0.4,0.9-0.9,0.9h-1.7c-0.5,0-0.9-0.4-0.9-0.9V413h-7.2v16.2
			c0,0.5-0.4,0.9-0.9,0.9h-1.9V430z"/>
		<path fill="#58595B" d="M317,410.3v1.7c0,0.5-0.3,0.8-0.8,0.8c-1.5,0-3.6,1.1-4.5,2.7v13.6c0,0.5-0.4,0.9-0.9,0.9H309
			c-0.5,0-0.9-0.4-0.9-0.9v-18.3c0-0.5,0.4-0.9,0.9-0.9h1.3c0.5,0,1,0.4,1,0.9l0.1,1.5c1-1.6,3.4-2.8,4.7-2.8
			C316.6,409.6,317,409.9,317,410.3z"/>
		<path fill="#58595B" d="M326.7,427.5c2.7,0,3.9-1.4,3.9-3.1c0-2.1-2-2.7-4.8-3.1c-3.4-0.5-6.6-1.7-6.6-5.5v-0.6
			c0-3.3,2.4-5.7,7.2-5.7c4.9,0,7.3,3,7.3,5.9c0,0.5-0.3,0.9-0.8,0.9h-1.7c-0.5,0-0.9-0.3-0.9-0.8c0-1.3-1-3-3.9-3
			c-2.6,0-3.7,1.3-3.7,3c0,2.1,1.8,2.8,4.6,3.2c3.4,0.5,6.8,1.5,6.8,5.4v0.7c0,3.2-2.6,5.8-7.4,5.8c-4.9,0-7.9-2.8-7.9-5.9
			c0-0.5,0.4-0.9,0.9-0.9h1.8c0.5,0,0.9,0.3,0.9,0.8C322.3,425.8,323.8,427.5,326.7,427.5z"/>
		<path fill="#58595B" d="M338.3,423.5v-10.8h-1.2c-0.5,0-0.9-0.4-0.9-0.9v-1.1c0-0.5,0.4-0.9,0.9-0.9h1.3l0.3-4.1
			c0-0.5,0.5-0.9,1-0.9h1.3c0.5,0,0.9,0.4,0.9,0.9v4.1h4.9c0.5,0,0.9,0.4,0.9,0.9v1.1c0,0.5-0.4,0.9-0.9,0.9h-4.9v10.6
			c0,2.8,1.1,4.2,3.7,4.2c0.6,0,1.2,0,1.9-0.1c0.5-0.1,0.9,0.2,0.9,0.7v1.1c0,0.5-0.4,1-0.9,1c-0.7,0.1-1.5,0.3-2.1,0.3
			C340.6,430.4,338.3,428.2,338.3,423.5z"/>
		<path fill="#58595B" d="M361,422.9V417c0-4.6,3-7.4,7.8-7.4s7.8,2.8,7.8,7.4v5.9c0,4.6-3,7.4-7.8,7.4S361,427.5,361,422.9z
			 M364.5,417.4v5.1c0,3.2,1.5,4.9,4.3,4.9s4.3-1.7,4.3-4.9v-5.1c0-3.2-1.5-4.9-4.3-4.9C366.1,412.5,364.5,414.2,364.5,417.4z"/>
		<path fill="#58595B" d="M390.1,410.3v1.7c0,0.5-0.3,0.8-0.8,0.8c-1.5,0-3.6,1.1-4.5,2.7v13.6c0,0.5-0.4,0.9-0.9,0.9h-1.8
			c-0.5,0-0.9-0.4-0.9-0.9v-18.3c0-0.5,0.4-0.9,0.9-0.9h1.3c0.5,0,1,0.4,1,0.9l0.1,1.5c1-1.6,3.4-2.8,4.7-2.8
			C389.8,409.6,390.1,409.9,390.1,410.3z"/>
		<path fill="#58595B" d="M406.7,403.1c0.5,0,0.9,0.4,0.9,0.9v25.1c0,0.5-0.4,0.9-0.9,0.9h-1.3c-0.5,0-1-0.4-1-0.9l-0.1-1.1
			c-1.4,1.4-3.4,2.4-5.4,2.4c-4.6,0-6.7-2.5-6.7-7.2v-6.4c0-4.6,2.1-7.2,6.7-7.2c2,0,4,0.9,5.2,2.2V404c0-0.5,0.4-0.9,0.9-0.9H406.7
			z M395.7,417.1v5.6c0,3,1,4.5,3.7,4.5c1.8,0,3.6-1.2,4.6-2.4V415c-1-1.3-2.9-2.4-4.6-2.4C396.7,412.6,395.7,414.1,395.7,417.1z"/>
		<path fill="#58595B" d="M420.1,430.3c-4.8,0-7.8-2.8-7.8-7.4V417c0-4.6,3-7.4,7.8-7.4s7.8,2.8,7.8,7.4v2.8c0,0.5-0.4,0.9-0.9,0.9
			h-11.2v2c0,3.2,1.5,4.7,4.3,4.7c3.1,0,4.2-1.9,4.2-3.2c0-0.5,0.3-0.8,0.8-0.8h1.9c0.5,0,0.8,0.4,0.8,0.9
			C427.8,427,425,430.3,420.1,430.3z M415.8,417.3v0.7h8.5v-0.7c0-3.1-1.5-4.8-4.3-4.8C417.3,412.5,415.8,414.1,415.8,417.3z"/>
		<path fill="#58595B" d="M441.3,410.3v1.7c0,0.5-0.3,0.8-0.8,0.8c-1.5,0-3.6,1.1-4.5,2.7v13.6c0,0.5-0.4,0.9-0.9,0.9h-1.8
			c-0.5,0-0.9-0.4-0.9-0.9v-18.3c0-0.5,0.4-0.9,0.9-0.9h1.3c0.5,0,1,0.4,1,0.9l0.1,1.5c1-1.6,3.4-2.8,4.7-2.8
			C441,409.6,441.3,409.9,441.3,410.3z"/>
	</g>
	<g enable-background="new    ">
		<path fill="#58595B" d="M162.2,475.2c-0.5,0-1-0.4-1.2-0.9l-5.6-18.3c-0.1-0.4,0.2-0.9,0.6-0.9h2c0.5,0,1,0.4,1.1,0.9l4,15l3.8-15
			c0.1-0.5,0.6-0.9,1.1-0.9h2c0.5,0,1,0.4,1.1,0.9l3.9,15l4-15c0.1-0.5,0.6-0.9,1.1-0.9h1.9c0.4,0,0.8,0.4,0.6,0.9l-5.7,18.3
			c-0.1,0.5-0.6,0.9-1.2,0.9h-2c-0.5,0-1-0.4-1.1-0.9l-3.8-14.4l-3.7,14.4c-0.1,0.5-0.6,0.9-1.1,0.9H162.2z"/>
		<path fill="#58595B" d="M186.5,475.2c-0.5,0-0.9-0.4-0.9-0.9v-25.1c0-0.5,0.4-0.9,0.9-0.9h1.8c0.5,0,0.9,0.4,0.9,0.9v7.8
			c1.4-1.4,3.2-2.3,5.1-2.3c4.6,0,6.6,2.3,6.6,6.8v12.7c0,0.5-0.4,0.9-0.9,0.9h-1.8c-0.5,0-0.9-0.4-0.9-0.9v-12.3
			c0-2.9-0.9-4.2-3.6-4.2c-1.8,0-3.5,1.2-4.5,2.4v14c0,0.5-0.4,0.9-0.9,0.9h-1.8V475.2z"/>
		<path fill="#58595B" d="M213.2,475.6c-4.8,0-7.8-2.8-7.8-7.4v-5.9c0-4.6,3-7.4,7.8-7.4s7.8,2.8,7.8,7.4v2.8c0,0.5-0.4,0.9-0.9,0.9
			h-11.2v2c0,3.2,1.5,4.7,4.3,4.7c3.1,0,4.2-1.9,4.2-3.2c0-0.5,0.3-0.8,0.8-0.8h1.9c0.5,0,0.8,0.4,0.8,0.9
			C220.9,472.3,218.1,475.6,213.2,475.6z M208.9,462.6v0.7h8.5v-0.7c0-3.1-1.5-4.8-4.3-4.8C210.4,457.8,208.9,459.4,208.9,462.6z"/>
		<path fill="#58595B" d="M226.4,475.2c-0.5,0-0.9-0.4-0.9-0.9V456c0-0.5,0.4-0.9,0.9-0.9h1.3c0.5,0,1,0.4,1,0.9l0.1,1.1
			c1.4-1.4,3.2-2.4,5.3-2.4c4.5,0,6.5,2.3,6.5,6.8v12.7c0,0.5-0.4,0.9-0.9,0.9H238c-0.5,0-0.9-0.4-0.9-0.9v-12.3
			c0-2.9-0.9-4.2-3.6-4.2c-1.8,0-3.4,1.2-4.5,2.4v14c0,0.5-0.4,0.9-0.9,0.9h-1.7V475.2z"/>
		<path fill="#58595B" d="M263.6,475.6c-1.1,3.3-3.8,5.2-7.1,5.3c-0.5,0-0.9-0.4-0.9-0.9v-1c0-0.6,0.4-0.9,0.9-1
			c1.8-0.1,3.1-1.1,3.7-3l-6.7-18.9c-0.1-0.4,0.1-0.9,0.6-0.9h2c0.5,0,1,0.4,1.1,0.9l4.8,15.1l4.7-15.1c0.1-0.5,0.6-0.9,1.2-0.9h1.9
			c0.5,0,0.8,0.4,0.6,0.9L263.6,475.6z"/>
		<path fill="#58595B" d="M272.3,468.2v-5.9c0-4.6,3-7.4,7.8-7.4s7.8,2.8,7.8,7.4v5.9c0,4.6-3,7.4-7.8,7.4S272.3,472.8,272.3,468.2z
			 M275.8,462.7v5.1c0,3.2,1.5,4.9,4.3,4.9s4.3-1.7,4.3-4.9v-5.1c0-3.2-1.5-4.9-4.3-4.9C277.4,457.8,275.8,459.5,275.8,462.7z"/>
		<path fill="#58595B" d="M292.5,468.8v-12.7c0-0.5,0.4-0.9,0.9-0.9h1.8c0.5,0,0.9,0.4,0.9,0.9v12.3c0,2.9,0.6,4.2,3.4,4.2
			c1.8,0,3.5-1.2,4.5-2.4v-14c0-0.5,0.4-0.9,0.9-0.9h1.8c0.5,0,0.9,0.4,0.9,0.9v18.3c0,0.5-0.4,0.9-0.9,0.9h-1.4c-0.5,0-1-0.4-1-0.9
			l-0.1-1.1c-1.4,1.4-3.4,2.4-5.4,2.4C294,475.6,292.5,473.3,292.5,468.8z"/>
	</g>
	<g enable-background="new    ">
		<path fill="#58595B" d="M319.4,466.8h2.8c0.6,0,1,0.4,1,1c0,1.6,1.7,3.8,4.7,3.8c2.8,0,4.3-1.4,4.3-3.6s-1.9-2.9-4.5-3.2
			c-4.5-0.5-8.8-2.1-8.8-7.2v-0.8c0-4.2,2.7-7.2,8.8-7.2c6.2,0,9,3.8,9,7.7c0,0.6-0.4,1.1-1.1,1.1h-2.8c-0.6,0-1-0.4-1-1
			c0-1.6-1.1-3.7-4.1-3.7c-2.6,0-3.9,1.4-3.9,3.3c0,2.6,2.1,3.2,4.7,3.4c4.2,0.4,8.7,2,8.7,6.9v0.9c0,4.4-3.1,7.4-9.2,7.4
			s-9.6-3.5-9.6-7.8C318.3,467.3,318.8,466.8,319.4,466.8z"/>
		<path fill="#58595B" d="M341.9,475.2c-0.6,0-1.1-0.5-1.1-1.1v-22.8c0-0.6,0.5-1.1,1.1-1.1h2.7c0.6,0,1.1,0.5,1.1,1.1v22.8
			c0,0.6-0.5,1.1-1.1,1.1H341.9z"/>
		<path fill="#58595B" d="M368,457.5c0,0.6-0.5,1.1-1.1,1.1h-2.8c-0.6,0-1-0.4-1-1.1v-0.4c0-2-1.7-3.3-4.3-3.3
			c-2.5,0-4.2,1.6-4.2,4.5v8.9c0,2.9,1.6,4.5,4.3,4.5c1.7,0,3.2-0.7,4.2-1.9v-3.5h-3.8c-0.6,0-1.1-0.5-1.1-1.1v-1.7
			c0-0.6,0.5-1.1,1.1-1.1h7.6c0.6,0,1.1,0.5,1.1,1.1v10.8c0,0.6-0.5,1.1-1.1,1.1h-2.1c-0.7,0-1.3-0.5-1.4-1.1l-0.1-0.4
			c-1.2,1.2-3.2,1.9-5.2,1.9c-4.8,0-8.6-3.2-8.6-8.2v-9.8c0-5,3.9-8.1,9.2-8.1c5.4,0,9.3,2.8,9.3,7.1V457.5z"/>
		<path fill="#58595B" d="M373,475.2c-0.6,0-1.1-0.5-1.1-1.1v-22.8c0-0.6,0.5-1.1,1.1-1.1h2.9c0.7,0,1.4,0.4,1.7,1l8.3,15l-0.1-14.9
			c0-0.6,0.5-1.1,1.1-1.1h2.6c0.6,0,1.1,0.5,1.1,1.1v22.8c0,0.6-0.5,1.1-1.1,1.1h-3c-0.7,0-1.3-0.4-1.7-1l-8.3-15l0.1,14.8
			c0,0.6-0.5,1.1-1.1,1.1H373V475.2z"/>
		<path fill="#58595B" d="M404.7,467.6v-16.3c0-0.6,0.5-1.1,1.1-1.1h2.7c0.6,0,1.1,0.5,1.1,1.1v15.8c0,2.9,1.6,4.5,4.1,4.5
			s4.1-1.6,4.1-4.5v-15.8c0-0.6,0.5-1.1,1.1-1.1h2.7c0.6,0,1.1,0.5,1.1,1.1v16.3c0,5-3.7,8.1-9.1,8.1S404.7,472.6,404.7,467.6z"/>
		<path fill="#58595B" d="M427.9,475.2c-0.6,0-1.1-0.5-1.1-1.1v-22.8c0-0.6,0.5-1.1,1.1-1.1h8.5c5.3,0,8.6,3.1,8.6,8.1v1.6
			c0,5-3.3,8.1-8.6,8.1h-4.7v6c0,0.6-0.5,1.1-1.1,1.1L427.9,475.2L427.9,475.2z M431.8,464h4.7c2.4,0,3.7-1.6,3.7-4.5v-0.8
			c0-2.9-1.3-4.5-3.7-4.5h-4.7V464z"/>
		<path fill="#58595B" d="M459.6,475.2c-0.6,0-1.1-0.5-1.1-1.1v-22.8c0-0.6,0.5-1.1,1.1-1.1h2.9c0.7,0,1.4,0.4,1.7,1l8.3,15
			l-0.1-14.9c0-0.6,0.5-1.1,1.1-1.1h2.6c0.6,0,1.1,0.5,1.1,1.1v22.8c0,0.6-0.5,1.1-1.1,1.1h-3c-0.7,0-1.3-0.4-1.7-1l-8.3-15
			l0.1,14.8c0,0.6-0.5,1.1-1.1,1.1h-2.5V475.2z"/>
		<path fill="#58595B" d="M481.2,467.6v-9.8c0-5,4.2-8.1,9.5-8.1c5.2,0,9.5,3.1,9.5,8.1v9.8c0,5-4.2,8.2-9.5,8.2
			C485.4,475.7,481.2,472.6,481.2,467.6z M486.2,458.3v8.9c0,2.9,2,4.5,4.5,4.5s4.5-1.6,4.5-4.5v-8.9c0-3-2-4.5-4.5-4.5
			S486.2,455.3,486.2,458.3z"/>
		<path fill="#58595B" d="M509.6,475.2c-0.6,0-1.3-0.5-1.5-1.1l-6.8-22.9c-0.2-0.5,0.3-1.1,0.8-1.1h3c0.7,0,1.3,0.5,1.4,1.1
			l4.3,16.8l4-16.8c0.1-0.6,0.8-1.1,1.4-1.1h3c0.6,0,1.3,0.5,1.4,1.1l4,16.8l4.3-16.8c0.2-0.6,0.8-1.1,1.4-1.1h2.9
			c0.6,0,1,0.5,0.8,1.1l-6.8,22.9c-0.2,0.6-0.8,1.1-1.5,1.1h-3c-0.7,0-1.3-0.5-1.4-1.1l-3.9-16l-3.9,16c-0.2,0.6-0.8,1.1-1.4,1.1
			H509.6z"/>
		<path fill="#58595B" d="M539.1,475.6c-1.5,0-2.5-0.8-2.5-2.4c0-1.5,1-2.3,2.5-2.3s2.6,0.8,2.6,2.3
			C541.7,474.8,540.6,475.6,539.1,475.6z M538.3,468.5c-0.6,0-1.1-0.5-1.2-1.1l-0.4-10.8v-5.3c0-0.6,0.5-1.1,1.1-1.1h2.5
			c0.6,0,1.1,0.5,1.1,1.1v5.3l-0.4,10.8c0,0.6-0.5,1.1-1.2,1.1H538.3z"/>
	</g>
</g>
</svg>
