<?xml version="1.0" encoding="utf-8"?>
<!-- Generator: Adobe Illustrator 18.1.1, SVG Export Plug-In . SVG Version: 6.00 Build 0)  -->
<svg version="1.1" id="Layer_1" xmlns="http://www.w3.org/2000/svg" xmlns:xlink="http://www.w3.org/1999/xlink" x="0px" y="0px"
	 viewBox="0 0 24.6 24.6" enable-background="new 0 0 24.6 24.6" xml:space="preserve">
<g>
	<g>
		<g>
			<g>
				<circle fill="#58595B" cx="12.3" cy="12.3" r="12.3"/>
			</g>
			<g>
				<g>
					<g>
						<path fill="#FFF100" d="M16.3,10.3l0,0.3c0,2.7-2.1,5.8-5.8,5.8c-1.2,0-2.2-0.3-3.2-0.9c0.2,0,0.3,0,0.5,0
							c1,0,1.9-0.3,2.6-0.9c-0.9,0-1.7-0.6-1.9-1.4c0.1,0,0.3,0,0.4,0c0.2,0,0.4,0,0.5-0.1c-0.9-0.2-1.6-1-1.6-2v0
							c0.3,0.2,0.6,0.2,0.9,0.3c-0.6-0.4-0.9-1-0.9-1.7c0-0.4,0.1-0.7,0.3-1c1,1.2,2.5,2.1,4.2,2.1c0-0.2,0-0.3,0-0.5
							c0-1.1,0.9-2.1,2.1-2.1c0.6,0,1.1,0.3,1.5,0.6c0.5-0.1,0.9-0.3,1.3-0.5c-0.2,0.5-0.5,0.9-0.9,1.1c0.4-0.1,0.8-0.2,1.2-0.3
							C17,9.6,16.7,10,16.3,10.3L16.3,10.3z M16.3,10.3"/>
					</g>
				</g>
			</g>
		</g>
	</g>
</g>
</svg>
