<?xml version="1.0" encoding="utf-8"?>
<!-- Generator: Adobe Illustrator 18.1.1, SVG Export Plug-In . SVG Version: 6.00 Build 0)  -->
<svg version="1.1" id="Layer_1" xmlns="http://www.w3.org/2000/svg" xmlns:xlink="http://www.w3.org/1999/xlink" x="0px" y="0px"
	 viewBox="0 0 24.6 24.6" enable-background="new 0 0 24.6 24.6" xml:space="preserve">
<g>
	<g>
		<g>
			<g>
				<circle fill="#58595B" cx="12.3" cy="12.3" r="12.3"/>
			</g>
			<g>
				<g>
					<g>
						<path fill="#FFF100" d="M16.4,7.8H8.2C8,7.8,7.8,8,7.8,8.2v8.2c0,0.2,0.2,0.4,0.4,0.4h8.2c0.2,0,0.4-0.2,0.4-0.4V8.2
							C16.8,8,16.6,7.8,16.4,7.8L16.4,7.8z M12.3,10.7c0.9,0,1.6,0.7,1.6,1.6c0,0.9-0.7,1.6-1.6,1.6c-0.9,0-1.6-0.7-1.6-1.6
							C10.7,11.4,11.4,10.7,12.3,10.7L12.3,10.7z M15.7,15.7H8.9v-4h0.7c0,0.2-0.1,0.4-0.1,0.6c0,1.5,1.2,2.7,2.7,2.7
							c1.5,0,2.7-1.2,2.7-2.7c0-0.2,0-0.4-0.1-0.6h0.7V15.7z M15.7,10.6H14V8.9h1.7V10.6z M15.7,10.6"/>
					</g>
				</g>
			</g>
		</g>
	</g>
</g>
</svg>
